…
8. Panel plot comparing the average number of steps taken per 5-minute interval across weekdays and weekends
============================================================================================================

Create a new factor variable in the dataset with two levels - "weekday"
and "weekend" indicating whether a given date is a weekday or weekend
day.

     activity_without_NAs <- mutate(activity_without_NAs, WeekDay= weekdays(date))  
     activity_without_NAs <- mutate(activity_without_NAs, WeekEnd= (activity_without_NAs$WeekDay=="Saturday" |  activity_without_NAs$WeekDay=="Sunday"))  
     total_day_noNAs_grouped <- activity_without_NAs  %>% group_by(interval,WeekEnd) %>% summarise(average=mean(as.numeric(steps_no_NAs)) )
     total_day_noNAs_grouped

    ## # A tibble: 576 x 3
    ## # Groups:   interval [?]
    ##    interval WeekEnd average
    ##       <int> <lgl>     <dbl>
    ##  1        0 FALSE   2.25   
    ##  2        0 TRUE    0.215  
    ##  3        5 FALSE   0.445  
    ##  4        5 TRUE    0.0425 
    ##  5       10 FALSE   0.173  
    ##  6       10 TRUE    0.0165 
    ##  7       15 FALSE   0.198  
    ##  8       15 TRUE    0.0189 
    ##  9       20 FALSE   0.0990 
    ## 10       20 TRUE    0.00943
    ## # ... with 566 more rows
…
